…
data_combo %>% group_by(w_cat) %>% select(-Char,-Glidder, -Kart, -Tire) %>% select(Accel, Speed_mean, Handling_mean, `M-turbo`,Traction)%>% skim_to_wide() %>% arrange(variable)

## Adding missing grouping variables: `w_cat`

## # A tibble: 25 x 14
##    type   w_cat   variable  missing complete n     mean  sd    p0    p25  
##    <chr>  <fct>   <chr>     <chr>   <chr>    <chr> <chr> <chr> <chr> <chr>
##  1 numer~ Super ~ Accel     0       1223     1223  "4.4~ 0.58  2.75  "4  ~
##  2 numer~ Light   Accel     0       2761     2761  3.73  0.55  "2  ~ 3.25 
##  3 numer~ Medium  Accel     0       2549     2549  3.14  0.53  1.75  2.75 
##  4 numer~ Heavy   Accel     0       1381     1381  2.52  0.53  1.25  2.25 
##  5 numer~ Super ~ Accel     0       150      150   1.84  0.41  "1  ~ "1.5~
##  6 numer~ Super ~ Handling~ 0       1223     1223  4.63  0.36  3.58  4.38 
##  7 numer~ Light   Handling~ 0       2761     2761  3.96  0.39  2.79  3.71 
##  8 numer~ Medium  Handling~ 0       2549     2549  3.19  0.39  2.08  2.92 
##  9 numer~ Heavy   Handling~ 0       1381     1381  2.53  0.42  1.38  2.21 
## 10 numer~ Super ~ Handling~ 0       150      150   2.01  0.45  1.12  1.67 
## # ... with 15 more rows, and 4 more variables: median <chr>, p75 <chr>,
## #   p100 <chr>, hist <chr>

Lighest combo have higher totals once weight is put out of the balance.

#Wich is the Most balanced Combo ?

Is there any combination that results with all stats being above or equal to 3.5 ?

data_combo %>%filter(Speed_Land>=3.5 & Accel >= 3.5 & Handling_Land >=3.5 & `M-turbo` >=3.5 & Traction >=3.5) %>% select(Char, Kart, Tire, Glidder,total_perf,Weight, Accel, Speed_mean,Speed_Land, Handling_mean, `M-turbo`,Traction, Handling_Land)

## # A tibble: 48 x 13
##    Char  Kart  Tire  Glidder total_perf Weight Accel Speed_mean Speed_Land
##    <chr> <chr> <chr> <chr>        <dbl>  <dbl> <dbl>      <dbl>      <dbl>
##  1 Luigi Mach~ Stan~ Cloud ~       18.1   3.50  3.50       3.96       3.50
##  2 Luigi Stan~ Spon~ Super ~       17.6   3.25  3.50       3.58       3.50
##  3 Luigi W 25~ Stan~ Super ~       18.6   3.25  3.75       3.75       3.50
##  4 Luigi W 25~ Stan~ Wario ~       18.4   3.50  3.75       3.79       3.50
##  5 Mario Cat ~ Stan~ Super ~       18.0   3.50  3.75       3.71       3.50
##  6 Mario Stan~ Stan~ Cloud ~       18.0   3.25  3.75       3.75       3.50
##  7 Mario W 25~ Stan~ Super ~       18.6   3.25  3.75       3.75       3.50
##  8 Mario W 25~ Stan~ Wario ~       18.4   3.50  3.75       3.79       3.50
##  9 Meta~ Bidd~ Stan~ Super ~       18.7   4.00  4.00       3.79       3.50
## 10 Meta~ Land~ Butt~ Super ~       18.6   3.50  4.00       3.75       3.50
## # ... with 38 more rows, and 4 more variables: Handling_mean <dbl>,
## #   `M-turbo` <dbl>, Traction <dbl>, Handling_Land <dbl>
…
